^C:\USERS\THINKPAD\SOURCE\REPOS\KATSMAN TABLE\KATSMAN TABLE\KATSMAN TABLE.CPP
C:\USERS\THINKPAD\SOURCE\REPOS\KATSMAN TABLE\KATSMAN TABLE\X64\DEBUG\VC143.PDB
C:\USERS\THINKPAD\SOURCE\REPOS\KATSMAN TABLE\KATSMAN TABLE\X64\DEBUG\VC143.IDB
C:\USERS\THINKPAD\SOURCE\REPOS\KATSMAN TABLE\KATSMAN TABLE\X64\DEBUG\KATSMAN TABLE.OBJ
