^C:\USERS\THINKPAD\SOURCE\REPOS\KATSMAN TABLE\KATSMAN TABLE\X64\DEBUG\KATSMAN TABLE.OBJ
C:\USERS\THINKPAD\SOURCE\REPOS\KATSMAN TABLE\X64\DEBUG\KATSMAN TABLE.EXE
C:\USERS\THINKPAD\SOURCE\REPOS\KATSMAN TABLE\KATSMAN TABLE\X64\DEBUG\KATSMAN TABLE.ILK
C:\USERS\THINKPAD\SOURCE\REPOS\KATSMAN TABLE\X64\DEBUG\KATSMAN TABLE.PDB
